[
  { "title": "Blabla", "text": "This is some text dude" },
  { "title": "Another", "text": "This is yet another text" },
  { "title": "Random", "text": "Random text blah" },
  { "title": "Rozpravka", "text": "Kde bolo tam bolo " },
  { "title": "Oukej", "text": "To som necakal" },
  { "title": "Tristo", "text": "Bojovnikov sparty" },
  { "title": "Hej ho", "text": "Toto je pripomienka aby si kupil mlieko" },
  {
    "title": "&lt;script&gt;alert('hej');&lt;/script&gt;",
    "text": "Zakerny vstup !"
  },
  { "title": "Zaver", "text": "Na zaver vsetci odisli" },
  { "title": "Keby.", "text": "bolo nieco, wat?" },
  { "title": "Vtip.", "text": "Hned ho poviem." }
]
